{
  "tempSensors": [
    {
      "id": "10-000802cbe042",
      "name": "kaloryfer"
    },
    {
      "id": "10-000802cbe825",
      "name": "pokoj 2"
    },
    {
      "id": "10-000802d6d148",
      "name": "dwor"
    },
    {
      "id": "28-0000067f7695",
      "name": "centrala alarmowa"
    },
    {
      "id": "28-000006bee1fc",
      "name": "test2"
    }
  ]
}
